<?xml version="1.0" ?>
<sdf version="1.6">
  <world name="default">

    <!-- A global light source -->
    <include>
      <uri>model://sun</uri>
    </include>

    <!-- A ground plane -->
    <include>
      <uri>model://ground_plane</uri>
    </include>

    <!-- Automatic population of objects -->
    <population name="tree_grid">
      <model name="tree_trunk">
        <include>
          <static>true</static>
          <uri>model://tree_trunk</uri>
        </include>
      </model>
      <pose>0 0 0 0 0 0</pose>
      <distribution>
        <type>grid</type>
        <rows>4</rows>
        <cols>20</cols>
        <step>0.133 0.75 0</step>
      </distribution>
    </population> 

    <include>
      <pose>-2.0 -0.5 0.01 0.0 0.0 0.0</pose>
      <uri>model://turtlebot3_burger</uri>
    </include>

  </world>
</sdf>

